<svg width="186" height="123" viewBox="0 0 186 123" fill="none" xmlns="http://www.w3.org/2000/svg">
<path d="M106.054 0.239643C105.921 0.383537 105.776 0.62336 105.72 0.791237C105.653 0.983097 105.608 9.41291 105.608 23.3347V45.5664H105.831C106.422 45.5664 111.106 43.4799 114.084 41.8971C119.604 38.9593 123.462 36.2372 127.499 32.436L129.362 30.6733L129.339 15.6483L129.306 0.62336L129.038 0.311588L128.771 -0.000183105H117.519C106.356 -0.000183105 106.278 -0.000183105 106.054 0.239643Z" fill="#FFCF2C"/>
<path d="M145.743 9.12454C141.851 13.0816 138.472 16.5471 138.227 16.7989L137.781 17.2666L138.283 17.0987C139.398 16.703 146.055 14.5086 146.133 14.5086C146.178 14.5086 145.877 15.0362 145.464 15.6717C139.788 24.5213 132.004 32.6993 123.194 39.0786C117.451 43.2275 110.793 46.8009 104.861 48.9114C98.3925 51.2137 92.1029 52.6047 84.8654 53.3241C81.7986 53.6239 72.5092 53.6359 69.4759 53.3241C57.3873 52.101 46.8154 49.2351 35.7528 44.1748C34.4034 43.5633 33.2882 43.0717 33.2771 43.0836C33.2548 43.0956 34.2584 44.8943 35.4963 47.0647C36.7341 49.2471 38.1839 51.7893 38.7192 52.7126L39.6782 54.4153L36.3996 56.8256C34.6041 58.1566 33.0986 59.2958 33.0763 59.3437C32.9314 59.5835 34.7826 60.7347 36.8568 61.682C41.0387 63.6006 48.767 66.2027 51.1423 66.5025C51.4768 66.5504 51.7779 66.6224 51.8002 66.6703C51.8337 66.7183 51.8002 68.1453 51.7445 69.836C51.5215 75.8916 51.9675 79.1892 53.105 79.9206C53.4619 80.1605 53.6849 80.1605 63.755 80.1605C73.9589 80.1605 74.037 80.1605 74.3381 79.9086C74.5054 79.7767 74.7507 79.5129 74.8734 79.3331C75.0964 79.0093 75.1076 78.8414 75.141 73.6732L75.1745 68.3491H77.0591H78.9549V73.1816C78.9549 78.4817 78.9995 78.9134 79.5906 79.5249C80.2931 80.2564 79.8025 80.2204 90.6866 80.2204C100.589 80.2204 100.634 80.2204 101.125 79.9686C101.415 79.8127 101.727 79.5129 101.905 79.2251L102.206 78.7335L102.24 70.3996L102.273 62.0537L104.08 60.7587C105.084 60.0512 105.931 59.4756 105.976 59.4756C106.02 59.4756 106.054 63.6486 106.054 68.7328V78.002L106.321 78.6256C106.623 79.3211 107.269 79.9086 107.961 80.1005C108.24 80.1844 111.708 80.2084 117.953 80.1964C126.763 80.1605 127.555 80.1485 127.867 79.9566C128.357 79.6688 128.848 79.1172 129.094 78.5776C129.294 78.1339 129.305 77.5224 129.339 60.1471L129.361 42.1603L135.026 36.0448C141.628 28.91 143.78 26.3439 146.133 22.7825C147.483 20.744 148.174 19.5329 148.944 17.8901L149.635 16.4152L150.527 18.2499C151.018 19.2571 151.776 20.8639 152.222 21.8112C152.657 22.7585 153.025 23.514 153.036 23.49C153.092 23.3701 152.936 2.04973 152.88 1.98977C152.847 1.94181 149.635 5.15545 145.743 9.12454Z" fill="white"/>
<path d="M79.0558 9.54449L78.7882 9.85626L78.7547 30.4691L78.7324 51.082H79.4796C80.4833 51.082 82.2675 50.9142 85.9253 50.4705C89.1928 50.0868 91.6797 49.6551 94.9026 48.9236C96.8207 48.4799 101.884 47.101 101.984 46.981C102.095 46.8611 102.051 10.3599 101.939 10.0481C101.872 9.86825 101.727 9.61644 101.594 9.47254C101.371 9.23272 101.293 9.23272 90.3526 9.23272H79.3235L79.0558 9.54449Z" fill="white"/>
<path d="M52.1563 20.1211C52.0671 20.229 51.9332 20.4808 51.8663 20.6607C51.7771 20.9005 51.7437 25.1694 51.7437 34.3667V47.7368L52.2789 47.9767C53.383 48.4923 56.6728 49.3077 59.9179 49.8833C64.3898 50.6747 67.8803 51.0224 72.3522 51.1543L75.1625 51.2383L75.1402 35.8775L75.1067 20.5288L74.8391 20.217L74.5714 19.9053H63.4531C53.0038 19.9053 52.3235 19.9172 52.1563 20.1211Z" fill="#FFCF2C"/>
<path d="M86.6493 91.8044C85.0434 92.1761 83.6829 93.2434 83.103 94.5864C82.8242 95.2099 82.8019 95.4018 82.8019 96.7088C82.8019 98.0399 82.8242 98.1957 83.103 98.7473C83.4933 99.5507 84.3854 100.426 85.233 100.846C85.6121 101.026 86.8054 101.481 87.8983 101.853C89.6491 102.453 89.9167 102.585 90.3851 103.04C90.965 103.604 91.1657 104.203 91.0096 104.947C90.7754 106.038 89.9502 106.602 88.5674 106.602C87.3184 106.602 86.4931 105.978 86.2143 104.827L86.0805 104.323H84.3408H82.6123L82.6904 104.887C83.103 107.861 85.5564 109.623 89.0469 109.443C90.7754 109.348 91.8683 108.928 92.8943 107.945C94.7232 106.206 94.9351 102.968 93.3292 101.218C92.6043 100.426 91.701 99.9465 89.4818 99.179C86.6158 98.1837 86.0471 97.7041 86.1251 96.3731C86.1697 95.5457 86.4151 95.138 87.0953 94.7543C87.6418 94.4665 88.4336 94.4065 89.1361 94.6224C89.716 94.7902 90.4074 95.4857 90.5747 96.0613L90.6974 96.529H92.4705H94.2548L94.1767 96.0253C93.831 93.8189 92.3813 92.2961 90.1286 91.7924C89.1919 91.5766 87.5972 91.5766 86.6493 91.8044Z" fill="white"/>
<path d="M178.128 91.8398C176.5 92.2715 175.273 93.2788 174.671 94.6817C174.258 95.653 174.191 97.056 174.504 98.1592C174.994 99.8859 176.21 100.797 179.377 101.805C181.139 102.368 181.897 102.764 182.299 103.315C183.024 104.347 182.645 105.822 181.496 106.373C180.894 106.673 179.645 106.673 179.043 106.373C178.429 106.085 177.894 105.39 177.805 104.802L177.727 104.323H175.998H174.27L174.336 105.006C174.481 106.493 175.608 108.064 177.013 108.759C178.909 109.683 181.518 109.707 183.269 108.819C184.027 108.436 184.998 107.5 185.388 106.781C186.102 105.486 186.202 103.543 185.633 102.248C185.254 101.409 184.407 100.569 183.459 100.102C183.068 99.9099 181.897 99.4542 180.86 99.0945C178.808 98.375 178.184 97.9913 177.827 97.2119C177.582 96.6723 177.649 95.9528 177.983 95.3532C178.675 94.1301 181.117 94.2381 181.931 95.5211C182.087 95.7729 182.221 96.1087 182.221 96.2526C182.221 96.5284 182.221 96.5284 184.005 96.5284H185.789V96.2406C185.789 95.737 185.388 94.5378 185.02 93.9742C184.05 92.4514 182.221 91.612 179.935 91.624C179.377 91.624 178.574 91.7199 178.128 91.8398Z" fill="white"/>
<path d="M0.0223036 100.57L0.0557591 109.299L4.31575 109.335L8.5869 109.359V107.98V106.601L5.94392 106.577L3.28979 106.541L3.25633 99.1908L3.23403 91.8522H1.61701H0L0.0223036 100.57Z" fill="white"/>
<path d="M10.7284 100.57L10.7618 109.299L12.3565 109.335L13.9401 109.371V106.026V102.68L16.0366 102.608C18.3451 102.536 19.0253 102.392 20.107 101.781C21.4341 101.013 22.3374 99.6222 22.5158 98.0274C22.7723 95.6891 21.8244 93.5907 20.0736 92.6314C18.8469 91.9599 18.6238 91.9359 14.52 91.8759L10.7061 91.828L10.7284 100.57ZM18.0105 94.9577C18.6462 95.2574 19.0253 95.809 19.1814 96.5885C19.4491 97.9914 18.858 99.2625 17.7763 99.6222C17.4975 99.7062 16.6388 99.7661 15.624 99.7661H13.9401V97.248V94.7298H15.7578C17.2633 94.7298 17.6425 94.7658 18.0105 94.9577Z" fill="white"/>
<path d="M30.4443 100.606V109.359H32.0614H33.6784V100.606V91.8522H32.0614H30.4443V100.606Z" fill="white"/>
<path d="M36.9349 100.57L36.9684 109.299L38.5631 109.335L40.1466 109.371V103.34C40.1466 99.6222 40.1912 97.3679 40.247 97.4398C40.3028 97.4998 41.9867 100.186 43.9717 103.423L47.5849 109.299L49.2131 109.335L50.8524 109.371V100.606V91.8519H49.2354H47.6183V97.7996C47.6183 101.061 47.5737 103.711 47.5291 103.675C47.4734 103.639 45.8118 100.965 43.8267 97.7276L40.2247 91.8519H38.5631H36.9126L36.9349 100.57Z" fill="white"/>
<path d="M52.8599 91.9234C52.8599 91.9834 58.3689 108.184 58.7146 109.155C58.7926 109.347 58.9711 109.359 60.7554 109.335L62.7181 109.299L65.6845 100.605L68.6508 91.9114L66.9781 91.8755C66.0636 91.8635 65.2718 91.8875 65.2384 91.9354C65.1938 91.9954 64.1901 95.0891 62.9969 98.8304C61.8036 102.572 60.8111 105.641 60.7777 105.641C60.7442 105.641 59.7182 102.536 58.5027 98.7464L56.2835 91.8515H54.5661C53.6293 91.8515 52.8599 91.8875 52.8599 91.9234Z" fill="white"/>
<path d="M70.7021 100.606V109.359H75.3859H80.0697V107.92V106.481H77.0029H73.9362V104.143V101.805H76.6684H79.4006V100.426V99.0469H76.6684H73.9362V96.8286V94.6102H77.0029H80.0697V93.2312V91.8522H75.3859H70.7021V100.606Z" fill="white"/>
<path d="M96.3521 93.2309V94.6099H98.5267H100.701L100.724 101.949L100.757 109.299L102.341 109.335L103.935 109.371L103.958 102.02L103.991 94.6699L106.143 94.6339L108.284 94.6099V93.2309V91.8519H102.318H96.3521V93.2309Z" fill="white"/>
<path d="M110.738 100.606V109.359H112.355H113.972L113.995 103.711L114.028 98.0634L116.203 103.711L118.377 109.371L119.593 109.335L120.82 109.299L122.95 103.759C124.109 100.713 125.113 98.1833 125.158 98.1353C125.202 98.0874 125.236 100.594 125.236 103.699V109.359H126.853H128.47V100.606V91.8519L126.607 91.8759L124.756 91.9119L122.191 98.3632C120.775 101.901 119.593 104.766 119.559 104.73C119.526 104.695 118.355 101.793 116.961 98.2912L114.441 91.9119L112.589 91.8759L110.738 91.8519V100.606Z" fill="white"/>
<path d="M131.702 100.606V109.359H136.386H141.07V107.92V106.481H138.003H134.936V104.143V101.805H137.668H140.401V100.426V99.0469H137.668H134.936V96.8286V94.6102H138.003H141.07V93.2312V91.8522H136.386H131.702V100.606Z" fill="white"/>
<path d="M144.082 100.606V109.359H145.699H147.316L147.338 103.364L147.372 97.3682L151.052 103.364L154.732 109.359L156.349 109.323L157.966 109.299L158 100.57L158.022 91.8522H156.405H154.788V97.7879C154.788 101.049 154.754 103.724 154.71 103.724C154.654 103.724 152.992 101.049 150.996 97.7879L147.372 91.8642L145.733 91.8522H144.082V100.606Z" fill="white"/>
<path d="M160.362 93.2312V94.6102L162.515 94.6342L164.656 94.6701L164.689 102.009L164.712 109.359H166.329H167.946V101.985V94.6102H170.12H172.295V93.2312V91.8522H166.329H160.362V93.2312Z" fill="white"/>
<path d="M31.5037 115.751C30.7566 116.027 30.3774 116.279 29.8979 116.867C28.5485 118.509 28.9834 121.147 30.7789 122.239C31.6822 122.79 33.1096 122.79 34.0129 122.239C35.8306 121.135 36.2433 118.485 34.8493 116.819C34.024 115.835 32.5743 115.38 31.5037 115.751ZM33.4553 116.855C34.1802 117.262 34.5705 118.066 34.5705 119.145C34.5705 120.176 34.2694 120.884 33.6449 121.327C33.2657 121.603 33.0761 121.651 32.3959 121.651C31.7156 121.651 31.526 121.603 31.1469 121.327C30.5224 120.884 30.2213 120.176 30.2213 119.145C30.2213 117.934 30.8235 116.915 31.6487 116.723C31.816 116.687 32.0056 116.639 32.0613 116.615C32.2509 116.531 33.1653 116.687 33.4553 116.855Z" fill="white"/>
<path d="M49.6146 115.75C48.2875 116.158 47.3954 117.369 47.3062 118.892C47.2169 120.427 47.808 121.614 49.0012 122.286C49.4919 122.561 49.7038 122.609 50.5179 122.609C51.3097 122.609 51.555 122.561 52.0011 122.31C52.9713 121.782 53.6181 120.727 53.7185 119.528L53.7854 118.832H51.9788H50.1833V119.252V119.66L51.3877 119.696L52.581 119.731L52.5475 120.031C52.4806 120.499 52.1014 121.075 51.6554 121.374C51.1201 121.734 50.0941 121.758 49.4696 121.422C48.9455 121.134 48.4325 120.319 48.3321 119.6C48.176 118.472 48.7559 117.213 49.5923 116.842C50.4064 116.47 51.6108 116.722 52.068 117.345C52.2464 117.585 52.3802 117.633 52.9044 117.633C53.5066 117.633 53.5289 117.621 53.4174 117.381C53.1497 116.842 52.5029 116.206 51.9676 115.966C51.2651 115.642 50.2725 115.547 49.6146 115.75Z" fill="white"/>
<path d="M158.902 115.774C157.932 116.11 157.397 117.129 157.675 118.113C157.854 118.772 158.344 119.144 159.493 119.516C160.631 119.887 161.032 120.199 161.032 120.751C161.032 121.35 160.608 121.71 159.883 121.71C159.248 121.71 158.891 121.482 158.746 120.991C158.69 120.799 158.579 120.751 158.121 120.751C157.475 120.751 157.43 120.895 157.831 121.638C158.166 122.262 158.768 122.597 159.716 122.645C161.054 122.729 161.913 122.046 162.013 120.811C162.069 120.103 161.857 119.552 161.433 119.252C161.289 119.144 160.742 118.916 160.218 118.724C158.902 118.257 158.69 118.101 158.69 117.525C158.69 116.95 158.969 116.662 159.616 116.59C160.017 116.542 160.151 116.578 160.452 116.854C160.653 117.034 160.809 117.249 160.809 117.345C160.809 117.465 160.965 117.513 161.367 117.513C161.88 117.513 161.924 117.489 161.924 117.225C161.924 116.818 161.478 116.194 161.01 115.93C160.452 115.619 159.538 115.559 158.902 115.774Z" fill="white"/>
<path d="M23.9766 119.192V122.67H24.4784H24.9691L25.0025 121.135L25.036 119.612L26.1289 119.576L27.2106 119.54V119.133V118.725L26.1289 118.689L25.036 118.653V117.634V116.614L26.4077 116.578L27.7682 116.542V116.135V115.715H25.8724H23.9766V119.192Z" fill="white"/>
<path d="M37.4697 119.192V122.67H37.9716H38.4734V121.219V119.78L38.8749 119.816C39.2652 119.852 39.3098 119.912 40.0235 121.231L40.7707 122.61L41.3506 122.646C41.674 122.67 41.9305 122.634 41.9305 122.586C41.9305 122.538 41.6071 121.902 41.2056 121.195C40.8041 120.476 40.4807 119.852 40.4807 119.792C40.4807 119.744 40.6034 119.672 40.7372 119.624C41.4955 119.42 42.0197 118.425 41.8747 117.43C41.7855 116.734 41.1944 116.051 40.5365 115.847C40.2911 115.775 39.4994 115.715 38.7856 115.715H37.4697V119.192ZM39.9789 116.674C40.5588 116.818 40.8153 117.166 40.8153 117.801C40.8041 118.665 40.425 118.953 39.2652 118.953H38.4734V117.754V116.554H39.0087C39.2986 116.554 39.7335 116.614 39.9789 116.674Z" fill="white"/>
<path d="M55.447 118.316C55.4804 120.918 55.4804 120.93 55.7815 121.494C56.696 123.161 59.4951 123.041 60.2311 121.302C60.4095 120.87 60.443 120.487 60.443 118.256V115.714H59.9411H59.4393V118.112C59.4393 120.822 59.3612 121.194 58.759 121.53C58.5025 121.674 58.2238 121.722 57.7888 121.686C57.2647 121.638 57.1197 121.566 56.8521 121.242L56.5398 120.87V118.292V115.714H55.9711H55.4023L55.447 118.316Z" fill="white"/>
<path d="M64.4574 115.751C64.4574 115.787 63.9556 117.31 63.3422 119.133C62.7289 120.967 62.2271 122.514 62.2271 122.574C62.2271 122.634 62.4612 122.67 62.7512 122.646L63.2642 122.61L63.4872 121.914L63.6991 121.231H65.0708H66.4424L66.6878 121.95L66.9331 122.67H67.4238C67.7472 122.67 67.9145 122.622 67.9145 122.514C67.9145 122.442 67.4238 120.883 66.8216 119.073L65.7176 115.775L65.0931 115.739C64.7362 115.715 64.4574 115.727 64.4574 115.751ZM65.6507 118.737C65.9183 119.54 66.1079 120.212 66.0856 120.236C66.0633 120.26 65.5949 120.26 65.0485 120.248L64.0448 120.212L64.5466 118.677C64.8254 117.837 65.0708 117.178 65.1154 117.214C65.1488 117.25 65.383 117.933 65.6507 118.737Z" fill="white"/>
<path d="M69.6987 119.18V122.67H70.2006H70.6912L70.7247 121.255L70.7582 119.852L71.0704 119.816C71.2488 119.792 71.4496 119.84 71.5388 119.912C71.628 119.996 72.0072 120.643 72.3752 121.363L73.0666 122.67H73.6688C74.0033 122.67 74.271 122.646 74.271 122.61C74.271 122.586 73.9253 121.938 73.4903 121.171L72.7209 119.792L73.0777 119.624C73.5015 119.444 74.0145 118.833 74.1149 118.401C74.2375 117.897 74.0925 116.962 73.8472 116.59C73.4123 115.931 72.9439 115.775 71.2377 115.739L69.6987 115.691V119.18ZM72.6874 116.806C73.245 117.178 73.2785 118.257 72.7432 118.713C72.509 118.905 72.2971 118.953 71.5834 118.953H70.7024V117.837C70.7024 117.214 70.7358 116.674 70.7916 116.626C70.9143 116.482 72.4198 116.626 72.6874 116.806Z" fill="white"/>
<path d="M78.118 115.919C77.8392 116.698 75.9434 122.478 75.9434 122.574C75.9434 122.634 76.1775 122.67 76.4675 122.646L76.9805 122.61L77.2035 121.914L77.4154 121.231H78.7871H80.1587L80.3706 121.914L80.5937 122.61L81.1067 122.646C81.4858 122.67 81.6308 122.634 81.6308 122.526C81.6196 122.442 81.129 120.883 80.5268 119.072L79.4227 115.775L78.8094 115.739C78.3075 115.715 78.1849 115.739 78.118 115.919ZM79.3447 118.689C79.5454 119.324 79.7461 119.948 79.7907 120.056C79.8688 120.248 79.7796 120.272 78.7982 120.272H77.7277L78.2295 118.749C78.5083 117.909 78.7313 117.19 78.7313 117.154C78.7425 116.974 79.0101 117.657 79.3447 118.689Z" fill="white"/>
<path d="M83.416 119.192V122.67H83.9178H84.4197L84.442 120.068L84.4754 117.478L86.0813 120.068L87.6872 122.67H88.1778H88.6574V119.192V115.715H88.1555H87.6537L87.6314 118.257L87.5979 120.787L86.0367 118.257L84.4754 115.715H83.9513H83.416V119.192Z" fill="white"/>
<path d="M90.4419 116.135V116.542L91.3117 116.578L92.1704 116.614L92.2039 119.636L92.2262 122.67H92.728H93.2298V119.612V116.554H94.0662H94.9026V116.135V115.715H92.6723H90.4419V116.135Z" fill="white"/>
<path d="M96.686 119.192V122.67H98.4703H100.255V122.19V121.711H98.9722H97.6785L97.712 120.655L97.7455 119.612L98.8383 119.576L99.9201 119.54V119.133V118.725L98.8383 118.689L97.7455 118.653V117.634V116.614L99.0056 116.578L100.255 116.542V116.135V115.715H98.4703H96.686V119.192Z" fill="white"/>
<path d="M102.262 119.192V122.67H104.046H105.831V122.19V121.711H104.548H103.266V120.631V119.552H104.381H105.496V119.133V118.725L104.415 118.689L103.322 118.653V117.634V116.614L104.582 116.578L105.831 116.542V116.135V115.715H104.046H102.262V119.192Z" fill="white"/>
<path d="M107.838 119.18V122.67H108.931C110.771 122.67 111.652 122.418 112.388 121.663C113.068 120.979 113.247 120.476 113.247 119.192C113.247 117.921 113.068 117.406 112.399 116.698C111.696 115.955 111.195 115.799 109.433 115.739L107.838 115.691V119.18ZM111.005 116.842C111.919 117.25 112.432 118.557 112.187 119.852C111.942 121.123 111.172 121.699 109.711 121.711H108.842V119.216C108.842 117.837 108.875 116.674 108.931 116.626C109.042 116.494 110.592 116.65 111.005 116.842Z" fill="white"/>
<path d="M118.678 119.156L118.711 122.61H119.213H119.715L119.748 121.195L119.782 119.792H120.161C120.529 119.792 120.562 119.84 121.298 121.231L122.057 122.67H122.648C122.96 122.67 123.228 122.634 123.228 122.598C123.228 122.562 122.904 121.938 122.503 121.231C122.101 120.523 121.778 119.888 121.778 119.84C121.778 119.78 121.979 119.636 122.224 119.516C123.283 118.989 123.506 117.31 122.625 116.363C122.146 115.847 121.633 115.715 120.016 115.715H118.655L118.678 119.156ZM121.276 116.674C121.845 116.818 122.112 117.166 122.112 117.778C122.112 118.137 122.034 118.329 121.789 118.605C121.488 118.929 121.399 118.953 120.618 118.953H119.77V117.754V116.554H120.306C120.596 116.554 121.031 116.614 121.276 116.674Z" fill="white"/>
<path d="M125.235 119.192V122.67H127.019H128.803V122.19V121.711H127.521H126.227L126.261 120.655L126.294 119.612L127.387 119.576L128.469 119.54V119.133V118.725L127.387 118.689L126.294 118.653V117.634V116.614L127.554 116.578L128.803 116.542V116.135V115.715H127.019H125.235V119.192Z" fill="white"/>
<path d="M130.476 116.134V116.554H131.312H132.148L132.171 119.576L132.204 122.609H132.706H133.208L133.241 119.576L133.264 116.554H134.1H134.936V116.134V115.714H132.706H130.476V116.134Z" fill="white"/>
<path d="M136.722 118.27C136.722 120.68 136.733 120.848 136.978 121.351C137.357 122.179 137.971 122.575 138.997 122.647C139.744 122.694 139.9 122.671 140.458 122.383C140.926 122.131 141.138 121.927 141.383 121.495C141.684 120.932 141.684 120.92 141.718 118.318L141.751 115.716H141.249H140.736V117.958C140.736 120.404 140.658 120.92 140.235 121.351C139.855 121.735 138.941 121.831 138.439 121.531C137.792 121.16 137.725 120.824 137.725 118.126V115.716H137.224H136.722V118.27Z" fill="white"/>
<path d="M143.858 119.192V122.67H144.36H144.862V121.219V119.78L145.264 119.816C145.654 119.852 145.698 119.912 146.412 121.231L147.148 122.61L147.739 122.646C148.051 122.67 148.319 122.634 148.319 122.586C148.319 122.538 147.996 121.902 147.594 121.195C147.193 120.476 146.869 119.852 146.869 119.804C146.869 119.756 147.048 119.648 147.26 119.564C148.375 119.133 148.631 117.202 147.706 116.327C147.182 115.835 146.702 115.715 145.174 115.715H143.858V119.192ZM146.368 116.674C146.936 116.818 147.204 117.166 147.204 117.778C147.204 118.137 147.126 118.329 146.881 118.605C146.579 118.929 146.49 118.953 145.71 118.953H144.862V117.754V116.554H145.397C145.687 116.554 146.122 116.614 146.368 116.674Z" fill="white"/>
<path d="M150.326 119.204V122.682L150.861 122.646L151.386 122.61L151.441 120.104L151.497 117.597L153.058 120.14L154.62 122.67L155.121 122.646L155.623 122.61L155.657 119.156L155.679 115.715H155.121H154.564L154.542 118.233L154.508 120.739L152.958 118.233L151.408 115.715H150.873H150.326V119.204Z" fill="white"/>
</svg>
